#This file defines the coverage for the saClmSelectionObjectGet conformance testing.

Assertion	Status
1-1		Yes
1-2		Yes
1-3		Yes
2-1		Yes
2-2		Yes
3-1		Yes
3-2		Yes
4		Yes
5		No
6		No
7		No
8-1		Yes
8-2		Yes
9		Yes
10		No
11		No





