#This file defines the coverage for the saLckInitialize conformance testing.

Assertion	Status
1-1		Yes
1-2		Yes
2-1		Yes
2-2		Yes
3-1		Yes
3-2		Yes
4		Yes
5-1		Yes
5-2		Yes
6-1		Yes
6-2		Yes
6-3		Yes
7		Yes
8		No
9		No
10		No
11		Yes
12		No
13		No
14		Yes


