This file defines the coverage for the saLckResourceOpen conformance
testing.

Assertion       Status
1               YES
2               YES
3               YES
4               YES
5              	No 
6               No

