This file defines the coverage for the saEvtSelectionObjectGet conformance testing.

Assertion	Status
1-1		Yes
1-2		Yes
1-3		Yes
2-1		Yes
2-2		Yes
3		Yes
4		Yes
5		Yes
6		No
7		No
8		No
9		Yes
10		Yes
11		No
12		No

