This file defines the coverage for the saAmfPmStart conformance testing.

Assertion	Status
1-1		Yes
1-2		Yes
1-3		Yes
2-1		Yes
2-2		Yes
2-3		Yes
3-1		Yes
3-2		Yes
3-3		Yes
3-4		Yes
4		Yes
5		Yes
6		Yes
7		Yes
8		Yes
9		Yes
10-1		Yes
10-2		Yes
10-3		Yes
10-4		Yes
10-5		Yes
10-6		Yes
10-7		Yes
10-8		Yes
11		Yes
12		Yes
13		No
14		No
15		No
16-1		Yes
16-2		Yes
17		Yes
18		No
19		No
20		NO
21		NO
