#This file defines the coverage for the saEvtDispatch conformance testing.

Assertion	Status
1-1		Yes
1-2		Yes
1-3		Yes
2-1		Yes
2-2		Yes
2-3		Yes
2-4		Yes
3		Yes
4		Yes
5		No
6		No
7		No
8		Yes	
9		Yes




