This file defines the coverage for the saClmClusterTrackStop conformance testing.

Assertion       Status
1		YES
2		YES
3		YES
4		NO
5		NO
6		NO
7-1		YES
7-2		YES
8		NO
9		NO
10-1		YES
10-2		YES
10-3		YES
10-4		YES

Total	14
Done	9
