This file defines the coverage for the saCkptCheckpointOpen conformance testing.

Assertion       Status
1-1		YES
1-2		YES
1-3		YES
2-1		YES
2-2		YES
3-1		YES
3-2		YES
3-3		YES
3-4		YES
4-1		YES
4-2		YES
4-3		YES
5-1		YES
5-2		YES
5-3		YES
5-4		YES
5-5		YES
5-6		YES
5-7		YES
6-1		YES
6-2		YES
6-3		YES
6-4		YES
7-1		YES
7-2		YES
8-1		YES
8-2		YES
9-1		YES
9-2		YES
10-1		YES
10-2		YES
11		NO
12		NO
13-1		YES
13-2		YES
13-3		YES
14		YES
15		NO
16		NO
17		NO
18		YES
19		YES
20		YES
21		YES
22		YES
23		NO
24		NO
25		YES
26		YES
27		YES
